Guided Project - Predicting Condominium Sale Prices
…
## # A tibble: 5 x 2
## # Groups:   borough [5]
##   borough       data                 
##   <chr>         <list>               
## 1 Bronx         <tibble [330 × 19]>  
## 2 Brooklyn      <tibble [1,697 × 19]>
## 3 Manhattan     <tibble [4,818 × 19]>
## 4 Queens        <tibble [1,004 × 19]>
## 5 Staten Island <tibble [96 × 19]>

NYC_nested$data[[1]]

## # A tibble: 330 x 19
##    neighborhood building_class_… tax_class_at_pr… block   lot building_class_…
##    <chr>        <chr>            <chr>            <dbl> <dbl> <chr>           
##  1 Bronxdale    13 Condos - Ele… 2                 4340  1025 R4              
##  2 Bronxdale    13 Condos - Ele… 2                 4340  1039 R4              
##  3 Bronxdale    13 Condos - Ele… 2                 4340  1078 R4              
##  4 Bronxdale    13 Condos - Ele… 2                 4340  1107 R4              
##  5 Bronxdale    13 Condos - Ele… 2                 4340  1168 R4              
##  6 Bronxdale    13 Condos - Ele… 2                 4340  1225 R4              
##  7 Bronxdale    13 Condos - Ele… 2                 4340  1245 R4              
##  8 Bronxdale    13 Condos - Ele… 2                 4340  1246 R4              
##  9 East Tremont 13 Condos - Ele… 2                 3125  1006 R4              
## 10 Kingsbridge… 13 Condos - Ele… 2                 5764  1017 R4              
## # … with 320 more rows, and 13 more variables: address <chr>,
## #   apartment_number <chr>, zip_code <dbl>, residential_units <dbl>,
## #   commercial_units <dbl>, total_units <dbl>, land_square_feet <dbl>,
## #   gross_square_feet <dbl>, year_built <dbl>, tax_class_at_time_of_sale <dbl>,
## #   building_class_at_time_of_sale <chr>, sale_price <dbl>, sale_date <dttm>
…
